{
  "development": {
    "username": "larica",
    "password": "larica",
    "database": "shoppingcart_development",
    "host": "127.0.0.1",
    "dialect": "mysql"
  },
  "test": {
    "username": "larica",
    "password": "larica",
    "database": "shoppingcart_test",
    "host": "127.0.0.1",
    "dialect": "mysql"
  },
  "production": {
    "username": "larica",
    "password": "larica",
    "database": "shoppingcart_production",
    "host": "127.0.0.1",
    "dialect": "mysql"
  }
}
